<svg width="16" height="16" viewBox="0 0 16 16" fill="none" xmlns="http://www.w3.org/2000/svg">
<path d="M8 3C7.44772 3 7 3.44772 7 4V7L4 7C3.44772 7 3 7.44771 3 8C3 8.55228 3.44772 9 4 9H7V12C7 12.5523 7.44772 13 8 13C8.55228 13 9 12.5523 9 12V9H12C12.5523 9 13 8.55228 13 8C13 7.44772 12.5523 7 12 7L9 7V4C9 3.44772 8.55228 3 8 3Z" fill="#333333"/>
</svg>
